{
  "project_info": {
    "project_number": "22818560310",
    "project_id": "firebase-scoachy"
  },
  "client": [
    {
      "client_info": {
        "mobilesdk_app_id": "1:22818560310:android:7f5e82a3a258c2e1",
        "android_client_info": {
          "package_name": "com.reovo.scoachy"
        }
      },
      "oauth_client": [
        {
          "client_id": "22818560310-affosvcsulr15ptuakeo1nhre5lsop31.apps.googleusercontent.com",
          "client_type": 3
        },
        {
          "client_id": "22818560310-mlbm01biljh20atsueut23bv8en1m9jb.apps.googleusercontent.com",
          "client_type": 1,
          "android_info": {
            "package_name": "com.reovo.scoachy",
            "certificate_hash": "a7d6ce45ff0dd0b6442bdc131d23b4a6fe1c29e5"
          }
        }
      ],
      "api_key": [
        {
          "current_key": "AIzaSyB8rC8QzzFIAc94WgdPOF9dKQOEPvntFGw"
        }
      ],
      "services": {
        "analytics_service": {
          "status": 1
        },
        "appinvite_service": {
          "status": 1,
          "other_platform_oauth_client": []
        },
        "ads_service": {
          "status": 1
        }
      }
    }
  ],
  "configuration_version": "1"
}